{
    "name": "Image",
    "sort": 0,
    "type": "image",
    "first": false,
    "next": "off",
    "url": "https://app.digitalone.co.id",
    "campaign_target_id": null,
    "is_protected_by_optin": false,
    "optin": null,
    "styles": {
        "background_color": "#eeeeee"
    },
    "header": {
        "rows": [
            {
                "styles": {
                    "image": "https://app.digitalone.co.id/image.png"
                },
                "cols": [
                    {
                        "styles": {
                            "width": "12"
                        },
                        "widget": {
                            "type": "text",
                            "id": null
                        }
                    }
                ]
            }
        ]
    },
    "content": {
        "rows": [
            {
                "styles": {},
                "cols": [
                    {
                        "styles": {
                            "width": "12"
                        },
                        "widget": {
                            "type": "text",
                            "id": null
                        }
                    }
                ]
            },
            {
                "styles": {},
                "cols": [
                    {
                        "styles": {
                            "width": "12"
                        },
                        "widget": {
                            "type": "image",
                            "id": null
                        }
                    }
                ]
            },
            {
                "styles": {},
                "cols": [
                    {
                        "styles": {
                            "width": "12"
                        },
                        "widget": {
                            "type": "social_media_button",
                            "id": null
                        }
                    }
                ]
            }
        ]
    },
    "footer": {
        "rows": [
            {
                "styles": {},
                "cols": [
                    {
                        "styles": {
                            "width": "12"
                        },
                        "widget": {
                            "type": "button",
                            "id": null
                        }
                    }
                ]
            }
        ]
    }
}
