{
    "name": "Bootstrap",
    "alias": "bootstrap",
    "description": "",
    "keywords": [],
    "active": 1,
    "order": 0,
    "providers": [
        "Modules\\Bootstrap\\Providers\\BootstrapServiceProvider"
    ],
    "aliases": {},
    "files": [
        "start.php"
    ],
    "requires": []
}
